{
  "project_info": {
    "project_number": "563804195441",
    "firebase_url": "https://health-lookup.firebaseio.com",
    "project_id": "health-lookup",
    "storage_bucket": "health-lookup.appspot.com"
  },
  "client": [
    {
      "client_info": {
        "mobilesdk_app_id": "1:563804195441:android:258b1f67541b8b7f39e9d0",
        "android_client_info": {
          "package_name": "com.nouas.health_lookup"
        }
      },
      "oauth_client": [
        {
          "client_id": "563804195441-g0t7t2fu75atml8rjkdbn3iu5d57etnh.apps.googleusercontent.com",
          "client_type": 3
        }
      ],
      "api_key": [
        {
          "current_key": "AIzaSyAbGoFe2GxsGVXSYEgG8alYmGa0w4SAJW4"
        }
      ],
      "services": {
        "appinvite_service": {
          "other_platform_oauth_client": [
            {
              "client_id": "563804195441-g0t7t2fu75atml8rjkdbn3iu5d57etnh.apps.googleusercontent.com",
              "client_type": 3
            },
            {
              "client_id": "563804195441-thq5bf6apcrafvdruh7vhk214hm8sjro.apps.googleusercontent.com",
              "client_type": 2,
              "ios_info": {
                "bundle_id": "com.nouas.healthLookup"
              }
            }
          ]
        }
      }
    }
  ],
  "configuration_version": "1"
}