{
  "project_info": {
    "project_number": "1059120043268",
    "firebase_url": "https://health-look.firebaseio.com",
    "project_id": "health-look",
    "storage_bucket": "health-look.appspot.com"
  },
  "client": [
    {
      "client_info": {
        "mobilesdk_app_id": "1:1059120043268:android:4693d2f3ea27f40a54ec51",
        "android_client_info": {
          "package_name": "com.example.health_lookup"
        }
      },
      "oauth_client": [
        {
          "client_id": "1059120043268-ntbtofjn041hcrep5ngfd2vkbukhintn.apps.googleusercontent.com",
          "client_type": 3
        }
      ],
      "api_key": [
        {
          "current_key": "AIzaSyCC9iJjRvYelRSB5wH917B30sLmPHBZ1ZU"
        }
      ],
      "services": {
        "appinvite_service": {
          "other_platform_oauth_client": [
            {
              "client_id": "1059120043268-ntbtofjn041hcrep5ngfd2vkbukhintn.apps.googleusercontent.com",
              "client_type": 3
            },
            {
              "client_id": "1059120043268-d1tj1q60c7bg0suekbvv1lbf9h8qg2js.apps.googleusercontent.com",
              "client_type": 2,
              "ios_info": {
                "bundle_id": "health-look"
              }
            }
          ]
        }
      }
    }
  ],
  "configuration_version": "1"
}